info face="Alba" size=40 bold=0 italic=0 charset="" unicode=1 stretchH=100 smooth=1 aa=1 padding=0,0,0,0 spacing=2,2
common lineHeight=63 base=42 scaleW=512 scaleH=256 pages=1 packed=0 alphaChnl=0 redChnl=4 greenChnl=4 blueChnl=4
page id=0 file="ALBA____.png"
chars count=95
char id=32   x=2     y=2     width=0     height=0     xoffset=0     yoffset=42    xadvance=12    page=0  chnl=0
char id=33   x=2     y=6     width=7     height=29    xoffset=1     yoffset=14    xadvance=8     page=0  chnl=0
char id=34   x=2     y=39    width=15    height=12    xoffset=2     yoffset=14    xadvance=18    page=0  chnl=0
char id=35   x=13    y=2     width=19    height=19    xoffset=2     yoffset=14    xadvance=22    page=0  chnl=0
char id=36   x=2     y=55    width=16    height=28    xoffset=2     yoffset=14    xadvance=18    page=0  chnl=0
char id=37   x=2     y=87    width=27    height=35    xoffset=2     yoffset=12    xadvance=29    page=0  chnl=0
char id=38   x=21    y=25    width=30    height=15    xoffset=2     yoffset=19    xadvance=32    page=0  chnl=0
char id=39   x=36    y=2     width=7     height=12    xoffset=2     yoffset=14    xadvance=9     page=0  chnl=0
char id=40   x=22    y=44    width=17    height=35    xoffset=2     yoffset=10    xadvance=19    page=0  chnl=0
char id=41   x=2     y=126   width=18    height=35    xoffset=2     yoffset=10    xadvance=20    page=0  chnl=0
char id=42   x=47    y=2     width=15    height=14    xoffset=2     yoffset=25    xadvance=17    page=0  chnl=0
char id=43   x=2     y=165   width=15    height=15    xoffset=2     yoffset=25    xadvance=18    page=0  chnl=0
char id=44   x=2     y=184   width=7     height=12    xoffset=2     yoffset=35    xadvance=9     page=0  chnl=0
char id=45   x=2     y=200   width=7     height=7     xoffset=2     yoffset=26    xadvance=9     page=0  chnl=0
char id=46   x=2     y=211   width=7     height=7     xoffset=2     yoffset=35    xadvance=9     page=0  chnl=0
char id=47   x=13    y=184   width=16    height=36    xoffset=0     yoffset=11    xadvance=14    page=0  chnl=0
char id=48   x=2     y=224   width=29    height=28    xoffset=2     yoffset=14    xadvance=31    page=0  chnl=0
char id=49   x=24    y=126   width=6     height=28    xoffset=2     yoffset=14    xadvance=8     page=0  chnl=0
char id=50   x=33    y=83    width=21    height=28    xoffset=2     yoffset=14    xadvance=23    page=0  chnl=0
char id=51   x=43    y=44    width=17    height=28    xoffset=2     yoffset=14    xadvance=20    page=0  chnl=0
char id=52   x=33    y=158   width=18    height=28    xoffset=2     yoffset=14    xadvance=20    page=0  chnl=0
char id=53   x=33    y=190   width=18    height=28    xoffset=2     yoffset=14    xadvance=20    page=0  chnl=0
char id=54   x=35    y=222   width=21    height=28    xoffset=2     yoffset=14    xadvance=23    page=0  chnl=0
char id=55   x=34    y=115   width=18    height=28    xoffset=2     yoffset=14    xadvance=20    page=0  chnl=0
char id=56   x=55    y=147   width=18    height=28    xoffset=2     yoffset=14    xadvance=21    page=0  chnl=0
char id=57   x=56    y=115   width=21    height=28    xoffset=2     yoffset=14    xadvance=23    page=0  chnl=0
char id=58   x=55    y=20    width=7     height=16    xoffset=2     yoffset=26    xadvance=9     page=0  chnl=0
char id=59   x=58    y=76    width=7     height=21    xoffset=2     yoffset=26    xadvance=9     page=0  chnl=0
char id=60   x=64    y=40    width=10    height=13    xoffset=2     yoffset=25    xadvance=12    page=0  chnl=0
char id=61   x=64    y=57    width=15    height=14    xoffset=2     yoffset=24    xadvance=18    page=0  chnl=0
char id=62   x=66    y=2     width=10    height=13    xoffset=2     yoffset=25    xadvance=12    page=0  chnl=0
char id=63   x=78    y=19    width=21    height=29    xoffset=2     yoffset=14    xadvance=20    page=0  chnl=0
char id=64   x=69    y=75    width=29    height=28    xoffset=2     yoffset=14    xadvance=31    page=0  chnl=0
char id=65   x=55    y=179   width=27    height=37    xoffset=2     yoffset=14    xadvance=23    page=0  chnl=0
char id=66   x=77    y=147   width=17    height=28    xoffset=2     yoffset=14    xadvance=19    page=0  chnl=0
char id=67   x=60    y=220   width=17    height=28    xoffset=2     yoffset=14    xadvance=19    page=0  chnl=0
char id=68   x=81    y=220   width=23    height=28    xoffset=2     yoffset=14    xadvance=26    page=0  chnl=0
char id=69   x=81    y=107   width=17    height=28    xoffset=2     yoffset=14    xadvance=19    page=0  chnl=0
char id=70   x=86    y=179   width=15    height=28    xoffset=2     yoffset=14    xadvance=18    page=0  chnl=0
char id=71   x=98    y=139   width=29    height=28    xoffset=2     yoffset=14    xadvance=31    page=0  chnl=0
char id=72   x=105   y=171   width=28    height=37    xoffset=2     yoffset=14    xadvance=24    page=0  chnl=0
char id=73   x=108   y=212   width=6     height=28    xoffset=2     yoffset=14    xadvance=8     page=0  chnl=0
char id=74   x=118   y=212   width=18    height=28    xoffset=2     yoffset=14    xadvance=20    page=0  chnl=0
char id=75   x=102   y=52    width=25    height=37    xoffset=2     yoffset=14    xadvance=21    page=0  chnl=0
char id=76   x=102   y=93    width=13    height=28    xoffset=2     yoffset=14    xadvance=15    page=0  chnl=0
char id=77   x=119   y=93    width=35    height=37    xoffset=2     yoffset=14    xadvance=31    page=0  chnl=0
char id=78   x=103   y=2     width=24    height=37    xoffset=2     yoffset=14    xadvance=20    page=0  chnl=0
char id=79   x=131   y=134   width=29    height=28    xoffset=2     yoffset=14    xadvance=31    page=0  chnl=0
char id=80   x=137   y=166   width=21    height=28    xoffset=2     yoffset=14    xadvance=23    page=0  chnl=0
char id=81   x=140   y=198   width=29    height=37    xoffset=2     yoffset=14    xadvance=30    page=0  chnl=0
char id=82   x=162   y=166   width=21    height=28    xoffset=2     yoffset=14    xadvance=23    page=0  chnl=0
char id=83   x=173   y=198   width=16    height=28    xoffset=2     yoffset=14    xadvance=18    page=0  chnl=0
char id=84   x=131   y=2     width=18    height=28    xoffset=2     yoffset=14    xadvance=20    page=0  chnl=0
char id=85   x=131   y=34    width=18    height=28    xoffset=2     yoffset=14    xadvance=20    page=0  chnl=0
char id=86   x=153   y=2     width=22    height=28    xoffset=1     yoffset=14    xadvance=21    page=0  chnl=0
char id=87   x=153   y=34    width=29    height=28    xoffset=2     yoffset=14    xadvance=31    page=0  chnl=0
char id=88   x=179   y=2     width=18    height=28    xoffset=2     yoffset=14    xadvance=20    page=0  chnl=0
char id=89   x=158   y=66    width=18    height=28    xoffset=2     yoffset=14    xadvance=20    page=0  chnl=0
char id=90   x=158   y=98    width=19    height=28    xoffset=0     yoffset=14    xadvance=19    page=0  chnl=0
char id=91   x=181   y=66    width=13    height=41    xoffset=2     yoffset=9     xadvance=15    page=0  chnl=0
char id=92   x=181   y=111   width=16    height=36    xoffset=0     yoffset=11    xadvance=14    page=0  chnl=0
char id=93   x=187   y=151   width=14    height=41    xoffset=2     yoffset=9     xadvance=16    page=0  chnl=0
char id=94   x=102   y=125   width=13    height=10    xoffset=2     yoffset=14    xadvance=15    page=0  chnl=0
char id=95   x=131   y=66    width=20    height=6     xoffset=2     yoffset=36    xadvance=23    page=0  chnl=0
char id=96   x=164   y=151   width=9     height=11    xoffset=2     yoffset=14    xadvance=11    page=0  chnl=0
char id=97   x=173   y=230   width=21    height=20    xoffset=2     yoffset=22    xadvance=23    page=0  chnl=0
char id=98   x=186   y=34    width=21    height=28    xoffset=2     yoffset=14    xadvance=23    page=0  chnl=0
char id=99   x=201   y=2     width=13    height=20    xoffset=2     yoffset=22    xadvance=15    page=0  chnl=0
char id=100  x=193   y=196   width=21    height=28    xoffset=2     yoffset=14    xadvance=23    page=0  chnl=0
char id=101  x=198   y=228   width=19    height=20    xoffset=2     yoffset=22    xadvance=21    page=0  chnl=0
char id=102  x=198   y=66    width=18    height=28    xoffset=2     yoffset=14    xadvance=20    page=0  chnl=0
char id=103  x=201   y=98    width=21    height=42    xoffset=2     yoffset=22    xadvance=23    page=0  chnl=0
char id=104  x=205   y=144   width=24    height=37    xoffset=2     yoffset=14    xadvance=20    page=0  chnl=0
char id=105  x=211   y=26    width=7     height=29    xoffset=1     yoffset=13    xadvance=8     page=0  chnl=0
char id=106  x=218   y=185   width=13    height=37    xoffset=-4    yoffset=14    xadvance=9     page=0  chnl=0
char id=107  x=222   y=2     width=23    height=37    xoffset=2     yoffset=14    xadvance=19    page=0  chnl=0
char id=108  x=221   y=226   width=6     height=28    xoffset=2     yoffset=14    xadvance=8     page=0  chnl=0
char id=109  x=220   y=59    width=35    height=29    xoffset=2     yoffset=22    xadvance=31    page=0  chnl=0
char id=110  x=226   y=92    width=24    height=29    xoffset=2     yoffset=22    xadvance=20    page=0  chnl=0
char id=111  x=231   y=226   width=21    height=20    xoffset=2     yoffset=22    xadvance=23    page=0  chnl=0
char id=112  x=249   y=2     width=21    height=28    xoffset=2     yoffset=22    xadvance=23    page=0  chnl=0
char id=113  x=233   y=125   width=21    height=28    xoffset=2     yoffset=22    xadvance=23    page=0  chnl=0
char id=114  x=249   y=34    width=12    height=20    xoffset=2     yoffset=22    xadvance=14    page=0  chnl=0
char id=115  x=233   y=157   width=16    height=20    xoffset=2     yoffset=22    xadvance=18    page=0  chnl=0
char id=116  x=254   y=92    width=18    height=25    xoffset=2     yoffset=17    xadvance=20    page=0  chnl=0
char id=117  x=259   y=58    width=18    height=20    xoffset=2     yoffset=22    xadvance=20    page=0  chnl=0
char id=118  x=265   y=34    width=17    height=20    xoffset=1     yoffset=22    xadvance=17    page=0  chnl=0
char id=119  x=274   y=2     width=29    height=20    xoffset=2     yoffset=22    xadvance=31    page=0  chnl=0
char id=120  x=235   y=181   width=18    height=20    xoffset=2     yoffset=22    xadvance=20    page=0  chnl=0
char id=121  x=256   y=205   width=18    height=29    xoffset=2     yoffset=22    xadvance=20    page=0  chnl=0
char id=122  x=253   y=157   width=18    height=20    xoffset=1     yoffset=22    xadvance=18    page=0  chnl=0
char id=123  x=275   y=121   width=13    height=41    xoffset=2     yoffset=9     xadvance=15    page=0  chnl=0
char id=124  x=281   y=58    width=6     height=37    xoffset=2     yoffset=9     xadvance=8     page=0  chnl=0
char id=125  x=278   y=166   width=14    height=41    xoffset=2     yoffset=9     xadvance=16    page=0  chnl=0
char id=126  x=259   y=82    width=14    height=6     xoffset=2     yoffset=14    xadvance=16    page=0  chnl=0
kernings count=0
